…
## Step 5: inspect results

```{r}
tar_read(ranks_unstructured)
#> # A tibble: 1,000 × 19
#>    b_groupgroup_1 b_groupgroup_2 b_groupgroup_3 b_timetime_2
#>             <dbl>          <dbl>          <dbl>        <dbl>
#>  1           4104           2573           3593         8346
#>  2          11074          10962          10986         2911
#>  3           9407          10515           9904         2703
#>  4           6878             28            728         9672
#>  5           3467           3365           3510        11599
#>  6           6156           7975           6034         9547
#>  7           6971           5843           1357        11736
#>  8           1289            762           3830        10178
#>  9           8738           6655          10501         2387
#> 10           7985           7380           6802         6918
#> # ℹ 990 more rows
#> # ℹ 15 more variables...
```
…
